Introduction to the Tidyverse
…
## # A tibble: 6 x 7
##   country     continent  year lifeExp      pop gdpPercap year_cat   
##   <fct>       <fct>     <int>   <dbl>    <int>     <dbl> <chr>      
## 1 Afghanistan Asia       1952    28.8  8425333      779. Before 1980
## 2 Afghanistan Asia       1957    30.3  9240934      821. Before 1980
## 3 Afghanistan Asia       1962    32.0 10267083      853. Before 1980
## 4 Afghanistan Asia       1967    34.0 11537966      836. Before 1980
## 5 Afghanistan Asia       1972    36.1 13079460      740. Before 1980
## 6 Afghanistan Asia       1977    38.4 14880372      786. Before 1980

Subset country and life expectancy and year variables only

select(.data = gapminder, c(country,year , lifeExp))

## # A tibble: 1,704 x 3
##    country      year lifeExp
##    <fct>       <int>   <dbl>
##  1 Afghanistan  1952    28.8
##  2 Afghanistan  1957    30.3
##  3 Afghanistan  1962    32.0
##  4 Afghanistan  1967    34.0
##  5 Afghanistan  1972    36.1
##  6 Afghanistan  1977    38.4
##  7 Afghanistan  1982    39.9
##  8 Afghanistan  1987    40.8
##  9 Afghanistan  1992    41.7
## 10 Afghanistan  1997    41.8
## # ... with 1,694 more rows

Task #1: Select

Use select()

subset country,year,gdpPercap, and pop variables only

create a new object called population_gdp assinged to subset data

Select() solution

population_gdp <- select(gapminder, c(country,year,gdpPercap,pop))
population_gdp 

## # A tibble: 1,704 x 4
##    country      year gdpPercap      pop
##    <fct>       <int>     <dbl>    <int>
##  1 Afghanistan  1952      779.  8425333
##  2 Afghanistan  1957      821.  9240934
##  3 Afghanistan  1962      853. 10267083
##  4 Afghanistan  1967      836. 11537966
##  5 Afghanistan  1972      740. 13079460
##  6 Afghanistan  1977      786. 14880372
##  7 Afghanistan  1982      978. 12881816
##  8 Afghanistan  1987      852. 13867957
##  9 Afghanistan  1992      649. 16317921
## 10 Afghanistan  1997      635. 22227415
## # ... with 1,694 more rows
…
filter all data for countries in Oceania

filter(gapminder, continent == "Oceania")

## # A tibble: 24 x 7
##    country   continent  year lifeExp      pop gdpPercap year_cat   
##    <fct>     <fct>     <int>   <dbl>    <int>     <dbl> <chr>      
##  1 Australia Oceania    1952    69.1  8691212    10040. Before 1980
##  2 Australia Oceania    1957    70.3  9712569    10950. Before 1980
##  3 Australia Oceania    1962    70.9 10794968    12217. Before 1980
##  4 Australia Oceania    1967    71.1 11872264    14526. Before 1980
##  5 Australia Oceania    1972    71.9 13177000    16789. Before 1980
##  6 Australia Oceania    1977    73.5 14074100    18334. Before 1980
##  7 Australia Oceania    1982    74.7 15184200    19477. 1980-2000  
##  8 Australia Oceania    1987    76.3 16257249    21889. 1980-2000  
##  9 Australia Oceania    1992    77.6 17481977    23425. 1980-2000  
## 10 Australia Oceania    1997    78.8 18565243    26998. 1980-2000  
## # ... with 14 more rows
…
mutate the gdp variable

mutate(gapminder, gdp = gdpPercap * pop)

## # A tibble: 1,704 x 8
##    country     continent  year lifeExp      pop gdpPercap year_cat             gdp
##    <fct>       <fct>     <int>   <dbl>    <int>     <dbl> <chr>              <dbl>
##  1 Afghanistan Asia       1952    28.8  8425333      779. Before 1980  6567086330.
##  2 Afghanistan Asia       1957    30.3  9240934      821. Before 1980  7585448670.
##  3 Afghanistan Asia       1962    32.0 10267083      853. Before 1980  8758855797.
##  4 Afghanistan Asia       1967    34.0 11537966      836. Before 1980  9648014150.
##  5 Afghanistan Asia       1972    36.1 13079460      740. Before 1980  9678553274.
##  6 Afghanistan Asia       1977    38.4 14880372      786. Before 1980 11697659231.
##  7 Afghanistan Asia       1982    39.9 12881816      978. 1980-2000   12598563401.
##  8 Afghanistan Asia       1987    40.8 13867957      852. 1980-2000   11820990309.
##  9 Afghanistan Asia       1992    41.7 16317921      649. 1980-2000   10595901589.
## 10 Afghanistan Asia       1997    41.8 22227415      635. 1980-2000   14121995875.
## # ... with 1,694 more rows

mutate 2 variables

mutate(gapminder, gdp = gdpPercap * pop,
                  pop_mil = round(pop / 1000000))

## # A tibble: 1,704 x 9
##    country     continent  year lifeExp      pop gdpPercap year_cat             gdp pop_mil
##    <fct>       <fct>     <int>   <dbl>    <int>     <dbl> <chr>              <dbl>   <dbl>
##  1 Afghanistan Asia       1952    28.8  8425333      779. Before 1980  6567086330.       8
##  2 Afghanistan Asia       1957    30.3  9240934      821. Before 1980  7585448670.       9
##  3 Afghanistan Asia       1962    32.0 10267083      853. Before 1980  8758855797.      10
##  4 Afghanistan Asia       1967    34.0 11537966      836. Before 1980  9648014150.      12
##  5 Afghanistan Asia       1972    36.1 13079460      740. Before 1980  9678553274.      13
##  6 Afghanistan Asia       1977    38.4 14880372      786. Before 1980 11697659231.      15
##  7 Afghanistan Asia       1982    39.9 12881816      978. 1980-2000   12598563401.      13
##  8 Afghanistan Asia       1987    40.8 13867957      852. 1980-2000   11820990309.      14
##  9 Afghanistan Asia       1992    41.7 16317921      649. 1980-2000   10595901589.      16
## 10 Afghanistan Asia       1997    41.8 22227415      635. 1980-2000   14121995875.      22
## # ... with 1,694 more rows
…
VALUE_IF_TRUE = What happens if test is true

VALUE_IF_FALSE = What happens if test is false

Create a variable to show before and after 2000

mutate(gapminder,
       after_1960 = ifelse(year > 1960, TRUE, FALSE))

mutate(gapminder,
       after_2000 = ifelse(year > 2000,
                           "After 2000",
                           "Before 2000"))

## # A tibble: 1,704 x 8
##    country     continent  year lifeExp      pop gdpPercap year_cat    after_2000 
##    <fct>       <fct>     <int>   <dbl>    <int>     <dbl> <chr>       <chr>      
##  1 Afghanistan Asia       1952    28.8  8425333      779. Before 1980 Before 2000
##  2 Afghanistan Asia       1957    30.3  9240934      821. Before 1980 Before 2000
##  3 Afghanistan Asia       1962    32.0 10267083      853. Before 1980 Before 2000
##  4 Afghanistan Asia       1967    34.0 11537966      836. Before 1980 Before 2000
##  5 Afghanistan Asia       1972    36.1 13079460      740. Before 1980 Before 2000
##  6 Afghanistan Asia       1977    38.4 14880372      786. Before 1980 Before 2000
##  7 Afghanistan Asia       1982    39.9 12881816      978. 1980-2000   Before 2000
##  8 Afghanistan Asia       1987    40.8 13867957      852. 1980-2000   Before 2000
##  9 Afghanistan Asia       1992    41.7 16317921      649. 1980-2000   Before 2000
## 10 Afghanistan Asia       1997    41.8 22227415      635. 1980-2000   Before 2000
## # ... with 1,694 more rows
…
Add an africa column that is TRUE if the country is on the African continent

Add a column for logged GDP per capita 
(hint: use log())

Add a column life_exp_asia for life expectancy that is TRUE if the country is in Asia and life expectancy id greater than 80

Add an africa_asia column that says “Africa or Asia” if the country is in Africa or Asia, and “Not Africa or Asia” if its not

Add an africa column

mutate(gapminder, africa = ifelse(continent == "Africa", 
                                  TRUE, FALSE))

## # A tibble: 1,704 x 8
##    country     continent  year lifeExp      pop gdpPercap year_cat    africa
##    <fct>       <fct>     <int>   <dbl>    <int>     <dbl> <chr>       <lgl> 
##  1 Afghanistan Asia       1952    28.8  8425333      779. Before 1980 FALSE 
##  2 Afghanistan Asia       1957    30.3  9240934      821. Before 1980 FALSE 
##  3 Afghanistan Asia       1962    32.0 10267083      853. Before 1980 FALSE 
##  4 Afghanistan Asia       1967    34.0 11537966      836. Before 1980 FALSE 
##  5 Afghanistan Asia       1972    36.1 13079460      740. Before 1980 FALSE 
##  6 Afghanistan Asia       1977    38.4 14880372      786. Before 1980 FALSE 
##  7 Afghanistan Asia       1982    39.9 12881816      978. 1980-2000   FALSE 
##  8 Afghanistan Asia       1987    40.8 13867957      852. 1980-2000   FALSE 
##  9 Afghanistan Asia       1992    41.7 16317921      649. 1980-2000   FALSE 
## 10 Afghanistan Asia       1997    41.8 22227415      635. 1980-2000   FALSE 
## # ... with 1,694 more rows

Add a column for logged GDP per capita

mutate(gapminder, log_gdpPercap = log(gdpPercap))

## # A tibble: 1,704 x 8
##    country     continent  year lifeExp      pop gdpPercap year_cat    log_gdpPercap
##    <fct>       <fct>     <int>   <dbl>    <int>     <dbl> <chr>               <dbl>
##  1 Afghanistan Asia       1952    28.8  8425333      779. Before 1980          6.66
##  2 Afghanistan Asia       1957    30.3  9240934      821. Before 1980          6.71
##  3 Afghanistan Asia       1962    32.0 10267083      853. Before 1980          6.75
##  4 Afghanistan Asia       1967    34.0 11537966      836. Before 1980          6.73
##  5 Afghanistan Asia       1972    36.1 13079460      740. Before 1980          6.61
##  6 Afghanistan Asia       1977    38.4 14880372      786. Before 1980          6.67
##  7 Afghanistan Asia       1982    39.9 12881816      978. 1980-2000            6.89
##  8 Afghanistan Asia       1987    40.8 13867957      852. 1980-2000            6.75
##  9 Afghanistan Asia       1992    41.7 16317921      649. 1980-2000            6.48
## 10 Afghanistan Asia       1997    41.8 22227415      635. 1980-2000            6.45
## # ... with 1,694 more rows

Add a column life_exp_asia for Asian countries with lifeExp>80

mutate(gapminder, life_exp_asia=ifelse(continent=="Asia" & lifeExp>80, 
                                       TRUE,FALSE))

## # A tibble: 1,704 x 8
##    country     continent  year lifeExp      pop gdpPercap year_cat    life_exp_asia
##    <fct>       <fct>     <int>   <dbl>    <int>     <dbl> <chr>       <lgl>        
##  1 Afghanistan Asia       1952    28.8  8425333      779. Before 1980 FALSE        
##  2 Afghanistan Asia       1957    30.3  9240934      821. Before 1980 FALSE        
##  3 Afghanistan Asia       1962    32.0 10267083      853. Before 1980 FALSE        
##  4 Afghanistan Asia       1967    34.0 11537966      836. Before 1980 FALSE        
##  5 Afghanistan Asia       1972    36.1 13079460      740. Before 1980 FALSE        
##  6 Afghanistan Asia       1977    38.4 14880372      786. Before 1980 FALSE        
##  7 Afghanistan Asia       1982    39.9 12881816      978. 1980-2000   FALSE        
##  8 Afghanistan Asia       1987    40.8 13867957      852. 1980-2000   FALSE        
##  9 Afghanistan Asia       1992    41.7 16317921      649. 1980-2000   FALSE        
## 10 Afghanistan Asia       1997    41.8 22227415      635. 1980-2000   FALSE        
## # ... with 1,694 more rows

Add an africa_asia column

mutate(gapminder, 
       africa_asia = ifelse(continent %in% c("Africa", "Asia"), 
                "Africa or Asia", 
                "Not Africa or Asia"))

## # A tibble: 1,704 x 8
##    country     continent  year lifeExp      pop gdpPercap year_cat    africa_asia   
##    <fct>       <fct>     <int>   <dbl>    <int>     <dbl> <chr>       <chr>         
##  1 Afghanistan Asia       1952    28.8  8425333      779. Before 1980 Africa or Asia
##  2 Afghanistan Asia       1957    30.3  9240934      821. Before 1980 Africa or Asia
##  3 Afghanistan Asia       1962    32.0 10267083      853. Before 1980 Africa or Asia
##  4 Afghanistan Asia       1967    34.0 11537966      836. Before 1980 Africa or Asia
##  5 Afghanistan Asia       1972    36.1 13079460      740. Before 1980 Africa or Asia
##  6 Afghanistan Asia       1977    38.4 14880372      786. Before 1980 Africa or Asia
##  7 Afghanistan Asia       1982    39.9 12881816      978. 1980-2000   Africa or Asia
##  8 Afghanistan Asia       1987    40.8 13867957      852. 1980-2000   Africa or Asia
##  9 Afghanistan Asia       1992    41.7 16317921      649. 1980-2000   Africa or Asia
## 10 Afghanistan Asia       1997    41.8 22227415      635. 1980-2000   Africa or Asia
## # ... with 1,694 more rows
…
cols = Columns to pivot into longer format.

names_to = name of the column to create from the data stored in the column names

values_to = string specifying the name of the column to create from the data stored in cell values

... = other specifications (check help)

We use the country_gdp pivot_longer the values of gdpPercap

country_gdp_longer <- country_gdp_wider %>%
 pivot_longer(cols =!year, names_to="country",values_to = "gdpPercap")  
country_gdp_longer

## # A tibble: 426 x 3
##     year country     gdpPercap
##    <int> <chr>           <dbl>
##  1  1997 Afghanistan      635.
##  2  1997 Albania         3193.
##  3  1997 Algeria         4797.
##  4  1997 Angola          2277.
##  5  1997 Argentina      10967.
##  6  1997 Australia      26998.
##  7  1997 Austria        29096.
##  8  1997 Bahrain        20292.
##  9  1997 Bangladesh       973.
## 10  1997 Belgium        27561.
## # ... with 416 more rows

Task #1: pivot_longer

Use pivot_longer() to

pivot_longer the values of median_gdpPercap into country and med_gdpPercap

Solution

median_gdpPercap_longer <- median_gdpPercap %>%
 pivot_longer(cols =!year_cat , names_to="country",values_to = "med_gdpPercap")  
median_gdpPercap_longer

## # A tibble: 426 x 3
## # Groups:   year_cat [3]
##    year_cat  country     med_gdpPercap
##    <chr>     <chr>               <dbl>
##  1 1980-2000 Afghanistan          751.
##  2 1980-2000 Albania             3412.
##  3 1980-2000 Algeria             5352.
##  4 1980-2000 Angola              2529.
##  5 1980-2000 Argentina           9224.
##  6 1980-2000 Australia          22657.
##  7 1980-2000 Austria            25365.
##  8 1980-2000 Bahrain            19123.
##  9 1980-2000 Bangladesh           795.
## 10 1980-2000 Belgium            24051.
## # ... with 416 more rows
…
